-----BEGIN PGP SIGNATURE-----

iHUEABYIAB0WIQRLSiy56hzPvq1pYJruVLzHiGEHrgUCY37VGQAKCRDuVLzHiGEH
rol8AP0UlLwU8arA6AEP/yUsAm/e5GoYuviDUNNe33UQo0Y0GAD/U2OFeXdvj1iN
TV6aGa7a3BzFmtgl/R3ZSaDBVmYqPgY=
=UWbJ
-----END PGP SIGNATURE-----
