-----BEGIN PGP SIGNATURE-----

iHUEABYIAB0WIQRLSiy56hzPvq1pYJruVLzHiGEHrgUCY37VKAAKCRDuVLzHiGEH
rkQjAPsH8xH3tnuDd8ukEPiLUOlPm8gPj6l9jollMjih/q5CbgD+KkZYaMpQ2tjc
Xxs8qDy8u0ENAkyt5gy3Jp65yopvkg8=
=PrGo
-----END PGP SIGNATURE-----
