-----BEGIN PGP SIGNATURE-----

iHUEABYIAB0WIQRLSiy56hzPvq1pYJruVLzHiGEHrgUCY37VJQAKCRDuVLzHiGEH
rs5WAQDDnldg+hvp7pVyDB7mSaqSbVDNOdtxi1avRb1z5V+2sQEAgjn9khjcsM4a
iSlA6NWzz9GmU/W8SI2EnlwjNSHafwA=
=nmga
-----END PGP SIGNATURE-----
