-----BEGIN PGP SIGNATURE-----

iHUEABYIAB0WIQRLSiy56hzPvq1pYJruVLzHiGEHrgUCY37VJAAKCRDuVLzHiGEH
rsA6AQDY8h0pgmqE80jmBXlah1iif3lypPwvy1zP888AplbK4wD/cwJVrVVPesYy
oRw/r0KORmyClnz+iWbN+Jh5sJEEqgk=
=uRHh
-----END PGP SIGNATURE-----
