-----BEGIN PGP SIGNATURE-----

iHUEABYIAB0WIQRLSiy56hzPvq1pYJruVLzHiGEHrgUCY37VKgAKCRDuVLzHiGEH
rozGAQCaheGfmV2jCTSkE6qqOvdR6Q9C9nJ1TM/dH28UVsL8KwEA9zsgfe7ULpCc
9l+6OmbfITExPDNlNXeEFmzuqt/DVws=
=ICax
-----END PGP SIGNATURE-----
