-----BEGIN PGP SIGNATURE-----

iHUEABYIAB0WIQRLSiy56hzPvq1pYJruVLzHiGEHrgUCY37VGQAKCRDuVLzHiGEH
rps6AQDQdx4rNTdnPDnLmsTe/hLX9lcxcoQFZWQeJDK95S006gD8DzfG6dvrR2Bw
HSkJC/ujQnLCUaHeshQc6BOUI2VnXws=
=9LXz
-----END PGP SIGNATURE-----
