-----BEGIN PGP SIGNATURE-----

iHUEABYIAB0WIQRLSiy56hzPvq1pYJruVLzHiGEHrgUCY37VJgAKCRDuVLzHiGEH
rtkGAQCk+/O1R6RquI3WOjPibGuQS/xIQ4hxFJE+P01GaPMNqwEAwkX1NODjiwJU
mzxUv6pvVUoJZ+k3yzlEA+cVn/3EEQo=
=u9gr
-----END PGP SIGNATURE-----
